module product

go 1.21

toolchain go1.21.1

require (
	github.com/aws/aws-sdk-go-v2/config v1.26.1
	github.com/gin-contrib/cors v1.4.0
	github.com/gin-gonic/gin v1.9.1
	github.com/golang/mock v1.6.0
	github.com/google/uuid v1.4.0
	github.com/jackc/pgx/v4 v4.18.1
	github.com/joho/godotenv v1.5.1
	github.com/kelseyhightower/envconfig v1.4.0
	github.com/lib/pq v1.10.9
	github.com/patrickmn/go-cache v2.1.0+incompatible
	github.com/stretchr/testify v1.8.4
	gitlab.com/tuneverse/toolkit v1.1.2
)

require (
	github.com/aws/aws-sdk-go-v2 v1.24.0 // indirect
	github.com/aws/aws-sdk-go-v2/aws/protocol/eventstream v1.5.4 // indirect
	github.com/aws/aws-sdk-go-v2/credentials v1.16.12 // indirect
	github.com/aws/aws-sdk-go-v2/feature/ec2/imds v1.14.10 // indirect
	github.com/aws/aws-sdk-go-v2/feature/s3/manager v1.15.7 // indirect
	github.com/aws/aws-sdk-go-v2/internal/configsources v1.2.9 // indirect
	github.com/aws/aws-sdk-go-v2/internal/endpoints/v2 v2.5.9 // indirect
	github.com/aws/aws-sdk-go-v2/internal/ini v1.7.2 // indirect
	github.com/aws/aws-sdk-go-v2/internal/v4a v1.2.9 // indirect
	github.com/aws/aws-sdk-go-v2/service/internal/accept-encoding v1.10.4 // indirect
	github.com/aws/aws-sdk-go-v2/service/internal/checksum v1.2.9 // indirect
	github.com/aws/aws-sdk-go-v2/service/internal/presigned-url v1.10.9 // indirect
	github.com/aws/aws-sdk-go-v2/service/internal/s3shared v1.16.9 // indirect
	github.com/aws/aws-sdk-go-v2/service/s3 v1.47.5 // indirect
	github.com/aws/aws-sdk-go-v2/service/sqs v1.29.5 // indirect
	github.com/aws/aws-sdk-go-v2/service/sso v1.18.5 // indirect
	github.com/aws/aws-sdk-go-v2/service/ssooidc v1.21.5 // indirect
	github.com/aws/aws-sdk-go-v2/service/sts v1.26.5 // indirect
	github.com/aws/smithy-go v1.19.0 // indirect
	github.com/bytedance/sonic v1.10.2 // indirect
	github.com/chenzhuoyu/base64x v0.0.0-20230717121745-296ad89f973d // indirect
	github.com/chenzhuoyu/iasm v0.9.0 // indirect
	github.com/davecgh/go-spew v1.1.1 // indirect
	github.com/dgrijalva/jwt-go v3.2.0+incompatible // indirect
	github.com/gabriel-vasile/mimetype v1.4.3 // indirect
	github.com/gin-contrib/sse v0.1.0 // indirect
	github.com/go-playground/locales v0.14.1 // indirect
	github.com/go-playground/universal-translator v0.18.1 // indirect
	github.com/go-playground/validator/v10 v10.16.0 // indirect
	github.com/goccy/go-json v0.10.2 // indirect
	github.com/golang/protobuf v1.5.3 // indirect
	github.com/google/go-cmp v0.5.9 // indirect
	github.com/jackc/chunkreader/v2 v2.0.1 // indirect
	github.com/jackc/pgconn v1.14.0 // indirect
	github.com/jackc/pgio v1.0.0 // indirect
	github.com/jackc/pgpassfile v1.0.0 // indirect
	github.com/jackc/pgproto3/v2 v2.3.2 // indirect
	github.com/jackc/pgservicefile v0.0.0-20221227161230-091c0ba34f0a // indirect
	github.com/jackc/pgtype v1.14.0 // indirect
	github.com/jmespath/go-jmespath v0.4.0 // indirect
	github.com/json-iterator/go v1.1.12 // indirect
	github.com/klauspost/cpuid/v2 v2.2.6 // indirect
	github.com/leodido/go-urn v1.2.4 // indirect
	github.com/mattn/go-isatty v0.0.20 // indirect
	github.com/modern-go/concurrent v0.0.0-20180306012644-bacd9c7ef1dd // indirect
	github.com/modern-go/reflect2 v1.0.2 // indirect
	github.com/pelletier/go-toml/v2 v2.1.1 // indirect
	github.com/pmezard/go-difflib v1.0.0 // indirect
	github.com/sirupsen/logrus v1.9.3 // indirect
	github.com/ttacon/builder v0.0.0-20170518171403-c099f663e1c2 // indirect
	github.com/ttacon/libphonenumber v1.2.1 // indirect
	github.com/twitchyliquid64/golang-asm v0.15.1 // indirect
	github.com/ugorji/go/codec v1.2.12 // indirect
	golang.org/x/arch v0.6.0 // indirect
	golang.org/x/crypto v0.16.0 // indirect
	golang.org/x/net v0.19.0 // indirect
	golang.org/x/sys v0.15.0 // indirect
	golang.org/x/text v0.14.0 // indirect
	google.golang.org/protobuf v1.31.0 // indirect
	gopkg.in/natefinch/lumberjack.v1 v1.0.0-20140618183000-8ec9c6b748e0 // indirect
	gopkg.in/yaml.v3 v3.0.1 // indirect
)
